…
lq_NC <- laquinta %>% # MAking the NC laquinta
  filter(state == "NC")
nrow(lq_NC)
```

    ## [1] 12

``` r
# There are 12 Laquinta's

dn_lq_NC <- full_join(dn_NC, lq_NC, by = "state")
dn_lq_NC
```

    ## # A tibble: 336 x 11
    ##    address.x    city.x state zip.x longitude.x latitude.x address.y city.y zip.y
    ##    <chr>        <chr>  <chr> <chr>       <dbl>      <dbl> <chr>     <chr>  <chr>
    ##  1 1 Regent Pa~ Ashev~ NC    28806       -82.6       35.6 165 Hwy ~ "\nBo~ 28607
    ##  2 1 Regent Pa~ Ashev~ NC    28806       -82.6       35.6 3127 Slo~ "\nCh~ 28208
    ##  3 1 Regent Pa~ Ashev~ NC    28806       -82.6       35.6 4900 Sou~ "\nCh~ 28217
    ##  4 1 Regent Pa~ Ashev~ NC    28806       -82.6       35.6 4414 Dur~ "\nDu~ 27707
    ##  5 1 Regent Pa~ Ashev~ NC    28806       -82.6       35.6 1910 Wes~ "\nDu~ 27713
    ##  6 1 Regent Pa~ Ashev~ NC    28806       -82.6       35.6 1201 Lan~ "\nGr~ 27407
    ##  7 1 Regent Pa~ Ashev~ NC    28806       -82.6       35.6 1607 Fai~ "\nCo~ 28613
    ##  8 1 Regent Pa~ Ashev~ NC    28806       -82.6       35.6 191 Cres~ "\nCa~ 27518
    ##  9 1 Regent Pa~ Ashev~ NC    28806       -82.6       35.6 2211 Sum~ "\nRa~ 27612
    ## 10 1 Regent Pa~ Ashev~ NC    28806       -82.6       35.6 1001 Aer~ "\nMo~ 27560
    ## # ... with 326 more rows, and 2 more variables: longitude.y <dbl>,
    ## #   latitude.y <dbl>
…
lq_tx <- laquinta %>% 
  filter(state == "TX")
nrow(lq_tx)
```

    ## [1] 237

``` r
# There are 237 Laquinta's

dn_lq_tx <- full_join(dn_tx, lq_tx, by = "state")
dn_lq_tx
```

    ## # A tibble: 47,400 x 11
    ##    address.x    city.x state zip.x longitude.x latitude.x address.y city.y zip.y
    ##    <chr>        <chr>  <chr> <chr>       <dbl>      <dbl> <chr>     <chr>  <chr>
    ##  1 120 East I-~ Abile~ TX    79601       -99.6       32.4 3018 Cat~ "\nAb~ 79606
    ##  2 120 East I-~ Abile~ TX    79601       -99.6       32.4 3501 Wes~ "\nAb~ 79601
    ##  3 120 East I-~ Abile~ TX    79601       -99.6       32.4 14925 La~ "\nAd~ 75254
    ##  4 120 East I-~ Abile~ TX    79601       -99.6       32.4 909 East~ "\nAl~ 78516
    ##  5 120 East I-~ Abile~ TX    79601       -99.6       32.4 2400 Eas~ "\nAl~ 78332
    ##  6 120 East I-~ Abile~ TX    79601       -99.6       32.4 1220 Nor~ "\nAl~ 75013
    ##  7 120 East I-~ Abile~ TX    79601       -99.6       32.4 1165 Hwy~ "\nAl~ 76009
    ##  8 120 East I-~ Abile~ TX    79601       -99.6       32.4 880 Sout~ "\nAl~ 77511
    ##  9 120 East I-~ Abile~ TX    79601       -99.6       32.4 1708 Int~ "\nAm~ 79103
    ## 10 120 East I-~ Abile~ TX    79601       -99.6       32.4 9305 Eas~ "\nAm~ 79118
    ## # ... with 47,390 more rows, and 2 more variables: longitude.y <dbl>,
    ## #   latitude.y <dbl>
…
lq_tn <- laquinta %>% 
  filter(state == "TN")
nrow(lq_tn)
```

    ## [1] 30

``` r
# There are 30 Laquinta's

dn_lq_tn <- full_join(dn_tn, lq_tn, by = "state")
dn_lq_tn
```

    ## # A tibble: 210 x 11
    ##    address.x    city.x state zip.x longitude.x latitude.x address.y city.y zip.y
    ##    <chr>        <chr>  <chr> <chr>       <dbl>      <dbl> <chr>     <chr>  <chr>
    ##  1 1011 Paul H~ Cleve~ TN    37312       -84.9       35.2 6650 Rin~ "\nEa~ 37412
    ##  2 1011 Paul H~ Cleve~ TN    37312       -84.9       35.2 7017 Sha~ "\nCh~ 37421
    ##  3 1011 Paul H~ Cleve~ TN    37312       -84.9       35.2 311 Brow~ "\nCh~ 37419
    ##  4 1011 Paul H~ Cleve~ TN    37312       -84.9       35.2 5000 New~ "\nHi~ 37343
    ##  5 1011 Paul H~ Cleve~ TN    37312       -84.9       35.2 7051 McC~ "\nCh~ 37421
    ##  6 1011 Paul H~ Cleve~ TN    37312       -84.9       35.2 251 Holi~ "\nCl~ 37040
    ##  7 1011 Paul H~ Cleve~ TN    37312       -84.9       35.2 130 Inte~ "\nCl~ 37312
    ##  8 1011 Paul H~ Cleve~ TN    37312       -84.9       35.2 1131 Sou~ "\nCo~ 38501
    ##  9 1011 Paul H~ Cleve~ TN    37312       -84.9       35.2 120 Sout~ "\nGo~ 37072
    ## 10 1011 Paul H~ Cleve~ TN    37312       -84.9       35.2 2370 N. ~ "\nJa~ 38305
    ## # ... with 200 more rows, and 2 more variables: longitude.y <dbl>,
    ## #   latitude.y <dbl>
…
